{
    "app-id": "org.gnome.ILoveYou",
    "runtime": "org.gnome.Platform",
    "runtime-version": "master",
    "sdk": "org.gnome.Sdk",
    "command": "org.gnome.ILoveYou",
    "finish-args": [
        "--share=network",
        "--share=ipc",
        "--socket=fallback-x11",
        "--socket=wayland",
        "--filesystem=xdg-run/dconf",
        "--filesystem=~/.config/dconf:ro",
        "--talk-name=ca.desrt.dconf",
        "--env=DCONF_USER_CONFIG_DIR=.config/dconf"
    ],
    "cleanup": [
        "/include",
        "/lib/pkgconfig",
        "/man",
        "/share/doc",
        "/share/gtk-doc",
        "/share/man",
        "/share/pkgconfig",
        "*.la",
        "*.a"
    ],
    "modules": [
        {
            "name" : "gtk4",
            "buildsystem": "meson",
            "builddir": true,
            "config-opts": [
                "-Dbuild-examples=false",
                "-Dbuild-tests=false",
                "-Ddemos=false",
                "--prefix=/app",
                "--libdir=/app/lib"
            ],
            "sources": [
                {
                    "type": "git",
                    "url": "https://gitlab.gnome.org/GNOME/gtk.git"
                }
            ]
        },
        {
            "name": "ilovegnome",
            "builddir": true,
            "buildsystem": "meson",
            "sources": [
                {
                    "type": "git",
                    "url": "file:///home/feaneron/Documentos/Projetos/ilovegnome"
                }
            ]
        }
    ]
}
